<svg width="24" height="24" viewBox="0 0 24 24" fill="none" xmlns="http://www.w3.org/2000/svg">
<g clip-path="url(#clip0_1097_3374)">
<mask id="mask0_1097_3374" style="mask-type:luminance" maskUnits="userSpaceOnUse" x="0" y="0" width="24" height="24">
<path d="M0 1.90735e-06H24V24H0V1.90735e-06Z" fill="white"/>
</mask>
<g mask="url(#mask0_1097_3374)">
<path d="M2.9668 9.87482V4.57761C2.9668 3.6515 3.71769 2.90076 4.64394 2.90076H19.3535C20.2798 2.90076 21.0307 3.6515 21.0307 4.57761V9.87482" stroke="black" stroke-width="1.40625" stroke-miterlimit="10" stroke-linecap="round" stroke-linejoin="round"/>
<path d="M22.4256 19.7668H1.57444C1.09322 19.7668 0.703125 19.3767 0.703125 18.8955V13.5526C0.703125 13.0714 1.09322 12.6813 1.57444 12.6813H22.4256C22.9068 12.6813 23.2969 13.0714 23.2969 13.5526V18.8955C23.2969 19.3767 22.9068 19.7668 22.4256 19.7668Z" stroke="black" stroke-width="1.40625" stroke-miterlimit="10" stroke-linecap="round" stroke-linejoin="round"/>
<path d="M22.1258 12.6813V11.5745C22.1258 10.6359 21.3648 9.87498 20.4261 9.87498H3.57478C2.63602 9.87498 1.875 10.6359 1.875 11.5745V12.6813" stroke="black" stroke-width="1.40625" stroke-miterlimit="10" stroke-linecap="round" stroke-linejoin="round"/>
<path d="M9.95064 9.87482C10.4302 9.87482 10.8189 9.48613 10.8189 9.00665V7.93658C10.8189 7.45715 10.4302 7.06846 9.95064 7.06846H6.17495C5.69538 7.06846 5.30664 7.45715 5.30664 7.93658V9.00665C5.30664 9.48613 5.69538 9.87482 6.17495 9.87482" stroke="black" stroke-width="1.40625" stroke-miterlimit="10" stroke-linecap="round" stroke-linejoin="round"/>
<path d="M17.8256 9.87482C18.3052 9.87482 18.6939 9.48613 18.6939 9.00665V7.93658C18.6939 7.45715 18.3052 7.06846 17.8256 7.06846H14.05C13.5704 7.06846 13.1816 7.45715 13.1816 7.93658V9.00665C13.1816 9.48613 13.5704 9.87482 14.05 9.87482" stroke="black" stroke-width="1.40625" stroke-miterlimit="10" stroke-linecap="round" stroke-linejoin="round"/>
<path d="M2.19922 19.7668V21.0993" stroke="black" stroke-width="1.40625" stroke-miterlimit="10" stroke-linecap="round" stroke-linejoin="round"/>
<path d="M21.8008 19.7668V21.0993" stroke="black" stroke-width="1.40625" stroke-miterlimit="10" stroke-linecap="round" stroke-linejoin="round"/>
</g>
</g>
<defs>
<clipPath id="clip0_1097_3374">
<rect width="24" height="24" fill="white"/>
</clipPath>
</defs>
</svg>
