<svg width="120" height="35" viewBox="0 0 120 35" fill="none" xmlns="http://www.w3.org/2000/svg">
<path d="M115.556 35H4.44444C2.00111 35 0 33.0489 0 30.6667V4.66667C0 2.28442 2.00111 0.333334 4.44444 0.333334H115.556C117.999 0.333334 120 2.28442 120 4.66667V30.6667C120 33.0489 117.999 35 115.556 35Z" fill="white"/>
<path d="M9.27556 6.86693C9.01445 7.13343 8.86334 7.54835 8.86334 8.08568V27.252C8.86334 27.7893 9.01445 28.2043 9.27556 28.4708L9.34001 28.5293L20.3556 17.7934V17.5399L9.34001 6.8041L9.27556 6.86693Z" fill="url(#paint0_linear_145_758)"/>
<path d="M24.0233 21.3738L20.3555 17.7934V17.5399L24.0278 13.9595L24.11 14.0061L28.4589 16.4187C29.7 17.1033 29.7 18.23 28.4589 18.919L24.11 21.3273L24.0233 21.3738Z" fill="url(#paint1_linear_145_758)"/>
<path d="M24.11 21.3273L20.3555 17.6667L9.27555 28.4708C9.68777 28.8933 10.36 28.9442 11.1244 28.5217L24.11 21.3273Z" fill="url(#paint2_linear_145_758)"/>
<path d="M24.11 14.0061L11.1244 6.81169C10.36 6.39352 9.68777 6.44444 9.27555 6.86694L20.3555 17.6667L24.11 14.0061Z" fill="url(#paint3_linear_145_758)"/>
<path d="M42.1489 9.21127C42.1489 9.93494 41.9267 10.5145 41.4889 10.9468C40.9856 11.4592 40.33 11.717 39.5267 11.717C38.7589 11.717 38.1033 11.4549 37.5655 10.9381C37.0267 10.4138 36.7578 9.77027 36.7578 9.00002C36.7578 8.22977 37.0267 7.58627 37.5655 7.06627C38.1033 6.54519 38.7589 6.28302 39.5267 6.28302C39.9089 6.28302 40.2733 6.35994 40.6211 6.50294C40.9678 6.64702 41.25 6.84202 41.4544 7.08252L40.99 7.53969C40.6333 7.1291 40.1478 6.92652 39.5267 6.92652C38.9667 6.92652 38.4811 7.11719 38.0689 7.50177C37.6611 7.88744 37.4567 8.38685 37.4567 9.00002C37.4567 9.61319 37.6611 10.1169 38.0689 10.5026C38.4811 10.8829 38.9667 11.0779 39.5267 11.0779C40.1211 11.0779 40.6211 10.8829 41.0156 10.4983C41.2756 10.2437 41.4233 9.89269 41.4622 9.44419H39.5267V8.81802H42.1089C42.14 8.95344 42.1489 9.08452 42.1489 9.21127Z" fill="black"/>
<path d="M46.2455 7.04024H43.82V8.68691H46.0067V9.31308H43.82V10.9597H46.2455V11.5978H43.1333V6.40216H46.2455V7.04024Z" fill="black"/>
<path d="M49.1366 11.5978H48.45V7.04024H46.9622V6.40216H50.6255V7.04024H49.1366V11.5978Z" fill="black"/>
<path d="M53.2767 11.5978V6.40216H53.9622V11.5978H53.2767Z" fill="black"/>
<path d="M57.0011 11.5978H56.32V7.04024H54.8266V6.40216H58.4944V7.04024H57.0011V11.5978Z" fill="black"/>
<path d="M65.43 10.9294C64.9044 11.4549 64.2533 11.717 63.4767 11.717C62.6955 11.717 62.0444 11.4549 61.5189 10.9294C60.9944 10.4051 60.7333 9.7616 60.7333 9.00002C60.7333 8.23844 60.9944 7.59494 61.5189 7.0706C62.0444 6.54519 62.6955 6.28302 63.4767 6.28302C64.2489 6.28302 64.9 6.54519 65.4256 7.07494C65.9544 7.6036 66.2155 8.24277 66.2155 9.00002C66.2155 9.7616 65.9544 10.4051 65.43 10.9294ZM62.0267 10.4939C62.4222 10.8829 62.9033 11.0779 63.4767 11.0779C64.0455 11.0779 64.5311 10.8829 64.9222 10.4939C65.3167 10.105 65.5167 9.6056 65.5167 9.00002C65.5167 8.39444 65.3167 7.89502 64.9222 7.5061C64.5311 7.11719 64.0455 6.92219 63.4767 6.92219C62.9033 6.92219 62.4222 7.11719 62.0267 7.5061C61.6322 7.89502 61.4322 8.39444 61.4322 9.00002C61.4322 9.6056 61.6322 10.105 62.0267 10.4939Z" fill="black"/>
<path d="M67.1789 11.5978V6.40216H68.0122L70.6033 10.443H70.6333L70.6033 9.44416V6.40216H71.2889V11.5978H70.5733L67.86 7.35766H67.83L67.86 8.36083V11.5978H67.1789Z" fill="black"/>
<path d="M60.5644 19.1855C58.4767 19.1855 56.7711 20.7347 56.7711 22.8721C56.7711 24.9922 58.4767 26.5576 60.5644 26.5576C62.6567 26.5576 64.3622 24.9922 64.3622 22.8721C64.3622 20.7347 62.6567 19.1855 60.5644 19.1855ZM60.5644 25.1059C59.4189 25.1059 58.4333 24.184 58.4333 22.8721C58.4333 21.5429 59.4189 20.6372 60.5644 20.6372C61.71 20.6372 62.7 21.5429 62.7 22.8721C62.7 24.184 61.71 25.1059 60.5644 25.1059ZM52.2878 19.1855C50.1956 19.1855 48.4944 20.7347 48.4944 22.8721C48.4944 24.9922 50.1956 26.5576 52.2878 26.5576C54.3789 26.5576 56.0811 24.9922 56.0811 22.8721C56.0811 20.7347 54.3789 19.1855 52.2878 19.1855ZM52.2878 25.1059C51.1411 25.1059 50.1522 24.184 50.1522 22.8721C50.1522 21.5429 51.1411 20.6372 52.2878 20.6372C53.4333 20.6372 54.4189 21.5429 54.4189 22.8721C54.4189 24.184 53.4333 25.1059 52.2878 25.1059ZM42.4389 20.3154V21.8819H46.2756C46.1633 22.7573 45.8633 23.4008 45.4033 23.8493C44.8433 24.3909 43.9711 24.9922 42.4389 24.9922C40.0778 24.9922 38.2289 23.1343 38.2289 20.8322C38.2289 18.5301 40.0778 16.6722 42.4389 16.6722C43.7156 16.6722 44.6444 17.1586 45.33 17.7891L46.4622 16.6852C45.5033 15.7925 44.2278 15.1068 42.4389 15.1068C39.2011 15.1068 36.48 17.6754 36.48 20.8322C36.48 23.989 39.2011 26.5576 42.4389 26.5576C44.1889 26.5576 45.5033 25.9986 46.5367 24.9499C47.5956 23.9175 47.9256 22.4659 47.9256 21.2937C47.9256 20.9297 47.8944 20.5949 47.8389 20.3154H42.4389ZM82.7122 21.5299C82.4 20.7054 81.4367 19.1855 79.4744 19.1855C77.53 19.1855 75.9111 20.6794 75.9111 22.8721C75.9111 24.9369 77.5133 26.5576 79.6611 26.5576C81.3978 26.5576 82.4 25.5252 82.8122 24.9239L81.5233 24.0865C81.0933 24.6997 80.5078 25.1059 79.6611 25.1059C78.82 25.1059 78.2167 24.73 77.83 23.989L82.8867 21.9491L82.7122 21.5299ZM77.5567 22.7573C77.5133 21.3359 78.6889 20.6079 79.5311 20.6079C80.1911 20.6079 80.7511 20.9297 80.9378 21.3901L77.5567 22.7573ZM73.4467 26.3334H75.1089V15.5H73.4467V26.3334ZM70.7244 20.0067H70.6689C70.2955 19.5755 69.5833 19.1855 68.6811 19.1855C66.7878 19.1855 65.0567 20.8062 65.0567 22.884C65.0567 24.9499 66.7878 26.5576 68.6811 26.5576C69.5833 26.5576 70.2955 26.1644 70.6689 25.7202H70.7244V26.2489C70.7244 27.6583 69.9522 28.4155 68.7067 28.4155C67.6911 28.4155 67.0611 27.7005 66.8011 27.0993L65.3555 27.6875C65.7722 28.6647 66.8755 29.8672 68.7067 29.8672C70.6555 29.8672 72.3 28.7492 72.3 26.0289V19.4098H70.7244V20.0067ZM68.8233 25.1059C67.6778 25.1059 66.7189 24.171 66.7189 22.884C66.7189 21.5851 67.6778 20.6372 68.8233 20.6372C69.9522 20.6372 70.8422 21.5851 70.8422 22.884C70.8422 24.171 69.9522 25.1059 68.8233 25.1059ZM90.4944 15.5H86.5189V26.3334H88.1767V22.2286H90.4944C92.3355 22.2286 94.1411 20.9297 94.1411 18.8638C94.1411 16.7989 92.3311 15.5 90.4944 15.5ZM90.5378 20.7217H88.1767V17.0069H90.5378C91.7755 17.0069 92.4822 18.009 92.4822 18.8638C92.4822 19.7023 91.7755 20.7217 90.5378 20.7217ZM100.786 19.1649C99.5878 19.1649 98.3422 19.6806 97.83 20.8235L99.3011 21.4248C99.6178 20.8235 100.2 20.6285 100.816 20.6285C101.676 20.6285 102.548 21.1323 102.561 22.0217V22.1354C102.261 21.9664 101.619 21.7162 100.829 21.7162C99.2444 21.7162 97.63 22.5666 97.63 24.1537C97.63 25.6054 98.9278 26.5403 100.387 26.5403C101.502 26.5403 102.118 26.0495 102.504 25.4786H102.561V26.316H104.162V22.1604C104.162 20.2396 102.691 19.1649 100.786 19.1649ZM100.586 25.1016C100.043 25.1016 99.2878 24.8394 99.2878 24.184C99.2878 23.3455 100.23 23.0238 101.046 23.0238C101.776 23.0238 102.118 23.1809 102.561 23.3878C102.431 24.3909 101.546 25.1016 100.586 25.1016ZM109.996 19.4022L108.09 24.0984H108.033L106.063 19.4022H104.276L107.236 25.965L105.547 29.6169H107.279L111.84 19.4022H109.996ZM95.0522 26.3334H96.7144V15.5H95.0522V26.3334Z" fill="black"/>
<defs>
<linearGradient id="paint0_linear_145_758" x1="19.3775" y1="27.4516" x2="4.83742" y2="12.5387" gradientUnits="userSpaceOnUse">
<stop stop-color="#00A0FF"/>
<stop offset="0.0066" stop-color="#00A1FF"/>
<stop offset="0.2601" stop-color="#00BEFF"/>
<stop offset="0.5122" stop-color="#00D2FF"/>
<stop offset="0.7604" stop-color="#00DFFF"/>
<stop offset="1" stop-color="#00E3FF"/>
</linearGradient>
<linearGradient id="paint1_linear_145_758" x1="30.075" y1="17.6655" x2="8.56664" y2="17.6655" gradientUnits="userSpaceOnUse">
<stop stop-color="#FFE000"/>
<stop offset="0.4087" stop-color="#FFBD00"/>
<stop offset="0.7754" stop-color="#FFA500"/>
<stop offset="1" stop-color="#FF9C00"/>
</linearGradient>
<linearGradient id="paint2_linear_145_758" x1="22.0684" y1="15.6767" x2="2.3509" y2="-4.54639" gradientUnits="userSpaceOnUse">
<stop stop-color="#FF3A44"/>
<stop offset="1" stop-color="#C31162"/>
</linearGradient>
<linearGradient id="paint3_linear_145_758" x1="6.48648" y1="34.8473" x2="15.2913" y2="25.8169" gradientUnits="userSpaceOnUse">
<stop stop-color="#32A071"/>
<stop offset="0.0685" stop-color="#2DA771"/>
<stop offset="0.4762" stop-color="#15CF74"/>
<stop offset="0.8009" stop-color="#06E775"/>
<stop offset="1" stop-color="#00F076"/>
</linearGradient>
</defs>
</svg>
