<svg width="77" height="77" viewBox="0 0 77 77" fill="none" xmlns="http://www.w3.org/2000/svg">
<circle cx="38.5" cy="38.5" r="38.5" fill="#F7F7F7"/>
<path d="M46.5046 47.3175H46.6348H46.6351V47.4175C47.3804 47.4155 47.9887 48.0131 48 48.7581L46.5046 47.3175ZM46.5046 47.3175V45.1784L46.5046 45.1779C46.4999 44.1487 46.0176 43.1799 45.1991 42.5555L45.199 42.5554L39.8438 38.4835L46.5046 47.3175ZM30.3648 23.9L46.6349 23.9L46.6351 23.9V24C47.3809 23.9991 47.9889 24.5972 48 25.3426L30.3648 23.9ZM30.3648 23.9H30.3647V24L30.3648 23.9ZM46.635 29.6825C46.6349 29.6825 46.6348 29.6825 46.6348 29.6825L46.4321 29.6825V31.6345V31.6347H46.3321C46.3336 32.6062 45.8908 33.5256 45.1301 34.1303L46.635 29.6825ZM46.635 29.6825H46.6351V29.5825L46.635 29.6825ZM46.6351 53.1V53L29 51.6574C29.0109 52.4028 29.6189 53.0009 30.3647 53V53.1H30.3648H46.6349H46.6351ZM30.3647 47.3175V47.4175L31.978 42.6388C31.1951 43.242 30.7373 44.1756 30.7405 45.1641H30.6405V45.1642V47.3175H30.365H30.3647ZM37.1649 38.49L31.917 42.5596L29 28.2419C29.0113 28.9869 29.6194 29.5845 30.3647 29.5825V29.6825H30.3648C30.3649 29.6825 30.3649 29.6825 30.365 29.6825L30.5679 29.6825L30.5679 31.6346C30.5679 31.6346 30.5679 31.6347 30.5679 31.6347C30.5668 32.6371 31.0237 33.5851 31.8085 34.2087C31.8086 34.2088 31.8086 34.2088 31.8086 34.2088L37.1649 38.49ZM44.8542 45.1787V47.3175H32.2908L32.2908 45.1641L32.2908 45.1639C32.2898 44.6548 32.5254 44.1742 32.929 43.8638L32.9293 43.8636L38.5042 39.5402L44.1995 43.8684C44.609 44.1804 44.8509 44.6643 44.8542 45.1787ZM44.1608 32.9196L44.1604 32.9198L38.5013 37.4438L32.8402 32.9198L32.8399 32.9195C32.4473 32.6086 32.2183 32.1354 32.2183 31.6347V29.6825H44.7817V31.6347C44.7817 32.1355 44.5531 32.6084 44.1608 32.9196ZM30.5504 25.55H46.4496V28.0325H30.5504V25.55ZM46.4496 51.45H30.5504V48.9675H31.3406C31.3533 48.9675 31.3672 48.9693 31.3898 48.9724L31.3914 48.9727C31.4116 48.9755 31.4391 48.9793 31.4681 48.9793C31.497 48.9793 31.5245 48.9755 31.5447 48.9727L31.5464 48.9724C31.5691 48.9693 31.5832 48.9675 31.596 48.9675H45.5423C45.5549 48.9675 45.5689 48.9693 45.5916 48.9724C45.6119 48.9753 45.6401 48.9793 45.6699 48.9793C45.699 48.9793 45.7265 48.9755 45.7467 48.9727L45.7482 48.9724C45.771 48.9693 45.7849 48.9675 45.7975 48.9675H46.4496V51.45Z" fill="#087B87" stroke="#087B87" stroke-width="0.2"/>
</svg>
