<svg width="34" height="34" viewBox="0 0 34 34" fill="none" xmlns="http://www.w3.org/2000/svg">
<circle cx="16.6667" cy="16.6667" r="16.1667" stroke="#087B87"/>
<path fill-rule="evenodd" clip-rule="evenodd" d="M10.932 14.8282C12.4627 18.1631 15.1865 20.8145 18.5725 22.2512L18.5832 22.2557L19.2373 22.5475C20.0703 22.9188 21.0493 22.6551 21.5834 21.9155L22.6748 20.4042C22.7414 20.3118 22.7242 20.1835 22.6357 20.112L20.7304 18.574C20.6357 18.4975 20.4964 18.5154 20.4239 18.6132L19.6824 19.6144C19.5023 19.8575 19.1771 19.942 18.9015 19.8172C16.3697 18.6708 14.3351 16.635 13.1893 14.1017C13.0646 13.826 13.149 13.5005 13.392 13.3204L14.3926 12.5784C14.4904 12.5059 14.5082 12.3665 14.4318 12.2718L12.8945 10.3651C12.8231 10.2765 12.6948 10.2593 12.6026 10.3259L11.0839 11.4229C10.3399 11.9604 10.0779 12.9482 10.4577 13.7841L10.9315 14.8271C10.9317 14.8274 10.9319 14.8278 10.932 14.8282ZM18.0656 23.4323C14.3865 21.8696 11.4273 18.9879 9.7641 15.3634L9.7631 15.3612L9.28822 14.316C8.65526 12.9229 9.09196 11.2765 10.332 10.3808L11.8507 9.28379C12.4965 8.81729 13.3942 8.93777 13.8943 9.55807L15.4316 11.4647C15.9665 12.1281 15.8419 13.1036 15.1575 13.6111L14.5841 14.0362C15.5527 15.9166 17.0877 17.4525 18.9669 18.4216L19.3919 17.8479C19.8991 17.1631 20.874 17.0384 21.537 17.5736L23.4423 19.1116C24.0624 19.6121 24.1827 20.5107 23.716 21.1569L22.6246 22.6683C21.7345 23.9009 20.1028 24.3405 18.7145 23.7216L18.0656 23.4323Z" fill="#087B87"/>
</svg>
